…
$info_file
[1] "/home/rreynolds/misc_projects/neurodegen-psych-local-corr/results/04_eqtl_univar_bivar/input.info.txt"

$sample_overlap_file
[1] "/home/rreynolds/misc_projects/neurodegen-psych-local-corr/results/04_eqtl_univar_bivar/sample_overlap.txt"

$loci_of_interest
[1] "ENSG00000168078" "ENSG00000168079" "ENSG00000170209" "ENSG00000069399"
[5] "ENSG00000130202" "ENSG00000130204"

$tidy_bivar
$tidy_bivar$univ
$tidy_bivar$univ$window_100000
# A tibble: 548 x 12
   ld_block eqtl_dataset gene_locus   gene_name   chr  start   stop n_snps n_pcs
      <int> <chr>        <chr>        <chr>     <int>  <int>  <int>  <int> <int>
 1      681 EQTLGEN      ENSG0000013~ MMRN1         4 9.07e7 9.10e7    825    91
 2      681 EQTLGEN      ENSG0000013~ MMRN1         4 9.07e7 9.10e7    825    91
 3      681 EQTLGEN      ENSG0000013~ MMRN1         4 9.07e7 9.10e7    825    91
 4      681 PSYCHENCODE  ENSG0000013~ MMRN1         4 9.07e7 9.10e7    527    47
 5      681 PSYCHENCODE  ENSG0000013~ MMRN1         4 9.07e7 9.10e7    527    47
 6      681 PSYCHENCODE  ENSG0000013~ MMRN1         4 9.07e7 9.10e7    527    47
 7      681 EQTLGEN      ENSG0000014~ SNCA          4 9.05e7 9.09e7    960    97
 8      681 EQTLGEN      ENSG0000014~ SNCA          4 9.05e7 9.09e7    960    97
 9      681 EQTLGEN      ENSG0000014~ SNCA          4 9.05e7 9.09e7    960    97
10      681 PSYCHENCODE  ENSG0000014~ SNCA          4 9.05e7 9.09e7    600    52
# ... with 538 more rows, and 3 more variables: phen <chr>, h2.obs <dbl>,
#   p <dbl>

$tidy_bivar$univ$window_50000
# A tibble: 540 x 12
   ld_block eqtl_dataset gene_locus   gene_name   chr  start   stop n_snps n_pcs
      <int> <chr>        <chr>        <chr>     <int>  <int>  <int>  <int> <int>
 1      681 EQTLGEN      ENSG0000013~ MMRN1         4 9.08e7 9.09e7    495    75
 2      681 EQTLGEN      ENSG0000013~ MMRN1         4 9.08e7 9.09e7    495    75
 3      681 EQTLGEN      ENSG0000013~ MMRN1         4 9.08e7 9.09e7    495    75
 4      681 PSYCHENCODE  ENSG0000013~ MMRN1         4 9.08e7 9.09e7    288    35
 5      681 PSYCHENCODE  ENSG0000013~ MMRN1         4 9.08e7 9.09e7    288    35
 6      681 PSYCHENCODE  ENSG0000013~ MMRN1         4 9.08e7 9.09e7    288    35
 7      681 EQTLGEN      ENSG0000014~ SNCA          4 9.06e7 9.08e7    687    71
 8      681 EQTLGEN      ENSG0000014~ SNCA          4 9.06e7 9.08e7    687    71
 9      681 EQTLGEN      ENSG0000014~ SNCA          4 9.06e7 9.08e7    687    71
10      681 PSYCHENCODE  ENSG0000014~ SNCA          4 9.06e7 9.08e7    437    40
# ... with 530 more rows, and 3 more variables: phen <chr>, h2.obs <dbl>,
#   p <dbl>


$tidy_bivar$bivar
$tidy_bivar$bivar$window_100000
# A tibble: 354 x 20
   ld_block eqtl_dataset gene_locus   gene_name   chr  start   stop n_snps n_pcs
      <int> <chr>        <chr>        <chr>     <int>  <int>  <int>  <int> <int>
 1      681 EQTLGEN      ENSG0000013~ MMRN1         4 9.07e7 9.10e7    825    91
 2      681 EQTLGEN      ENSG0000013~ MMRN1         4 9.07e7 9.10e7    825    91
 3      681 EQTLGEN      ENSG0000013~ MMRN1         4 9.07e7 9.10e7    825    91
 4      681 PSYCHENCODE  ENSG0000013~ MMRN1         4 9.07e7 9.10e7    527    47
 5      681 EQTLGEN      ENSG0000014~ SNCA          4 9.05e7 9.09e7    960    97
 6      681 EQTLGEN      ENSG0000014~ SNCA          4 9.05e7 9.09e7    960    97
 7      681 EQTLGEN      ENSG0000014~ SNCA          4 9.05e7 9.09e7    960    97
 8      681 EQTLGEN      ENSG0000018~ CCSER1        4 9.09e7 9.26e7   4805   304
 9      681 EQTLGEN      ENSG0000018~ CCSER1        4 9.09e7 9.26e7   4805   304
10      681 EQTLGEN      ENSG0000018~ CCSER1        4 9.09e7 9.26e7   4805   304
# ... with 344 more rows, and 11 more variables: phen1 <chr>, phen2 <chr>,
#   rho <dbl>, rho.lower <dbl>, rho.upper <dbl>, r2 <dbl>, r2.lower <dbl>,
#   r2.upper <dbl>, p <dbl>, fdr <dbl>, bonferroni <dbl>

$tidy_bivar$bivar$window_50000
# A tibble: 267 x 20
   ld_block eqtl_dataset gene_locus   gene_name   chr  start   stop n_snps n_pcs
      <int> <chr>        <chr>        <chr>     <int>  <int>  <int>  <int> <int>
 1      681 EQTLGEN      ENSG0000013~ MMRN1         4 9.08e7 9.09e7    495    75
 2      681 EQTLGEN      ENSG0000013~ MMRN1         4 9.08e7 9.09e7    495    75
 3      681 EQTLGEN      ENSG0000013~ MMRN1         4 9.08e7 9.09e7    495    75
 4      681 PSYCHENCODE  ENSG0000013~ MMRN1         4 9.08e7 9.09e7    288    35
 5      681 EQTLGEN      ENSG0000014~ SNCA          4 9.06e7 9.08e7    687    71
 6      681 EQTLGEN      ENSG0000014~ SNCA          4 9.06e7 9.08e7    687    71
 7      681 EQTLGEN      ENSG0000014~ SNCA          4 9.06e7 9.08e7    687    71
 8      681 EQTLGEN      ENSG0000018~ CCSER1        4 9.10e7 9.26e7   4490   298
 9      681 EQTLGEN      ENSG0000018~ CCSER1        4 9.10e7 9.26e7   4490   298
10      681 EQTLGEN      ENSG0000018~ CCSER1        4 9.10e7 9.26e7   4490   298
# ... with 257 more rows, and 11 more variables: phen1 <chr>, phen2 <chr>,
#   rho <dbl>, rho.lower <dbl>, rho.upper <dbl>, r2 <dbl>, r2.lower <dbl>,
#   r2.upper <dbl>, p <dbl>, fdr <dbl>, bonferroni <dbl>
…
